[
    {
        "_id": 1,
        "email": "Rayaan Ahmed",
        "datePlaced": "2018-11-01",
        "dateShipped": "2018-11-04",
        "paymentType": "Cash",
        "amountDue": 34.98,
        "paid": true
    },
    {
        "_id": 2,
        "email": "Ahmed Rayaan",
        "datePlaced": "2018-11-01",
        "dateShipped": "2018-11-04",
        "paymentType": "Cash",
        "amountDue": 34.98,
        "paid": true
    },
    {
        "_id": 3,
        "email": "Amaan Ahmed",
        "datePlaced": "2018-11-21",
        "dateShipped": "2018-11-30",
        "paymentType": "Cash",
        "amountDue": 12.2,
        "paid": true
    },
    {
        "_id": 4,
        "email": "Roman Empire",
        "datePlaced": "2018-12-21",
        "dateShipped": "2018-12-30",
        "paymentType": "Cash",
        "amountDue": 17.2,
        "paid": true
    }
]